[
  { "class": "BasicEventSelection",
    "configs": {
      "m_name": "basicEventSel",      
      "m_truthLevelOnly": false,
      "m_applyGRLCut": true,
      "m_GRLxml": "xAODAnaHelpers/data18_13TeV.periodAllYear_DetStatus-v102-pro22-03_Unknown_PHYS_StandardGRL_All_Good_25ns_Triggerno17e33prim.xml",
      "m_triggerSelection": "HLT_j450 | HLT_j420 | HLT_j400",
      "m_applyTriggerCut": true,
      "m_storeTrigDecisions": true,  
      "m_applyEventCleaningCut": true,
      "m_applyCoreFlagsCut": true,
      "m_doPUreweighting": false,
      "m_applyPrimaryVertexCut": true,
      "m_vertexContainerName": "PrimaryVertices",
      "m_PVNTrack": 2,
      "m_checkDuplicatesData": true,
      "m_derivationName": "STDM9Kernel" 
    }
  },
  
  { "class": "JetCalibrator",
    "configs": {
      "m_name": "EMCalibrator",
      "m_calibConfigData": "JES_data2017_2016_2015_Recommendation_Aug2018_rel21.config",
      "m_calibSequence": "JetArea_Residual_EtaJES_GSC_Insitu",
      "m_sort": true,
      "m_doCleaning": true,
      "m_jetCleanCutLevel": "LooseBad",
      "m_saveAllCleanDecisions": true,
      "m_jetCleanUgly": false,
      "m_inContainerName": "AntiKt4EMTopoJets",
      "m_outContainerName": "AntiKt4EMTopoJets_Nominal",
      "m_jetAlgo": "AntiKt4EMTopo",
      "m_outputAlgo": "AntiKt4EMTopoJets_Nominal_Algo",
      "m_JESUncertConfig": "",
      "m_systName": "",
      "m_JERUncertConfig": ""
    }
  },

  { "class": "JetCalibrator",
    "configs": {
      "m_name": "EMPFlowCalibrator",
      "m_calibConfigData": "JES_data2017_2016_2015_Recommendation_PFlow_Aug2018_rel21.config",
      "m_calibSequence": "JetArea_Residual_EtaJES_GSC_Insitu",
      "m_sort": true,
      "m_doCleaning": true,
      "m_jetCleanCutLevel": "LooseBad",
      "m_saveAllCleanDecisions": true,
      "m_jetCleanUgly": false,
      "m_inContainerName": "AntiKt4EMPFlowJets",
      "m_outContainerName": "AntiKt4EMPFlowJets_Nominal",
      "m_jetAlgo": "AntiKt4EMPFlow",
      "m_outputAlgo": "AntiKt4EMPFlowJets_Nominal_Algo",
      "m_JESUncertConfig": "",
      "m_systName": "",
      "m_JERUncertConfig": ""
    }
  },

  { "class": "JetSelector",
     "configs": {
      "m_name": "EMSelector",
      "m_inContainerName": "AntiKt4EMTopoJets_Nominal",
      "m_inputAlgo": "AntiKt4EMTopoJets_Nominal_Algo",
      "m_decorateSelectedObjects": true,
      "m_createSelectedContainer": true,
      "m_outContainerName": "AntiKt4EMTopoJets_Signal",
      "m_outputAlgo":  "AntiKt4EMTopoJets_Signal_Algo",
      "m_cleanJets": false,
      "m_pT_min": 30e3,
      "m_useCutFlow": true
    }
  },

  { "class": "JetSelector",
     "configs": {
      "m_name": "EMPFlowSelector",
      "m_inContainerName": "AntiKt4EMPFlowJets_Nominal",
      "m_inputAlgo": "AntiKt4EMPFlowJets_Nominal_Algo",
      "m_decorateSelectedObjects": true,
      "m_createSelectedContainer": true,
      "m_outContainerName": "AntiKt4EMPFlowJets_Signal",
      "m_outputAlgo":  "AntiKt4EMPFlowJets_Signal_Algo",
      "m_cleanJets": false,
      "m_pT_min": 30e3,
      "m_useCutFlow": true
    }
  },

  { "class": "TreeAlgo",
     "configs": {
      "m_name": "treeAlgo",
      "m_jetContainerName": "AntiKt4EMTopoJets_Signal AntiKt4EMPFlowJets_Signal HLT_xAOD__JetContainer_a4tcemsubjesISFS",
      "m_jetBranchName": "jet EMPFlowJetjet HLTJet",
      "m_jetDetailStr": "kinematic rapidity energyLight layer cleanLight scales|kinematic rapidity energyLight layer cleanLight scales|kinematic rapidity",
      "m_trigDetailStr": "passTriggers",
      "m_evtDetailStr": "pileup",
      "m_l1JetContainerName": "LVL1JetRoIs"
    }
  }

]
