0.000399736	0.0827757	1.0281	7.41374	2222.84	
0.0827757	0.082376	1.11003	7.49543	2222.84	
1.0281	1.11003	1.0277	8.43737	2222.84	
7.41374	7.49543	8.43737	7.41334	2222.86	
2222.84	2222.84	2222.84	2222.86	2222.84	
